{ "list": [
  { "clients": 0, "clients_max": 5, "version": "5.3.0", "proto_min": 0, "proto_max": 1024, "password": false, "creative": true,  "damage": false, "pvp": false, "name": "MineClone2 Creative",   "description": "Build",    "address": "10.0.0.89", "port": 30000, "ping": 0 },
  { "clients": 0, "clients_max": 5, "version": "5.3.0", "proto_min": 0, "proto_max": 1024, "password": false, "creative": false, "damage": true,  "pvp": true,  "name": "MineClone2 Survival",   "description": "Survive",  "address": "10.0.0.89", "port": 30001, "ping": 0 },
  { "clients": 0, "clients_max": 5, "version": "5.3.0", "proto_min": 0, "proto_max": 1024, "password": false, "creative": true,  "damage": false, "pvp": false, "name": "MinetestGame Creative", "description": "Build",    "address": "10.0.0.89", "port": 30002, "ping": 0 },
  { "clients": 0, "clients_max": 5, "version": "5.3.0", "proto_min": 0, "proto_max": 1024, "password": false, "creative": false, "damage": true,  "pvp": true,  "name": "MinetestGame Survival", "description": "Survive",  "address": "10.0.0.89", "port": 30003, "ping": 0 }
]}
